%YAML 1.1
%TAG !u! tag:unity3d.com,2011:
--- !u!221 &22100000
AnimatorOverrideController:
  m_ObjectHideFlags: 0
  m_PrefabParentObject: {fileID: 0}
  m_PrefabInternal: {fileID: 0}
  m_Name: Lich Override
  m_Controller: {fileID: 9100000, guid: e58bf4525b7cc80459d6f7ff033ea067, type: 2}
  m_Clips:
  - m_OriginalClip: {fileID: 7400000, guid: f10541572d6d93144ab62d62774e6af5, type: 2}
    m_OverrideClip: {fileID: 7400000, guid: ce43f40fc2027a949a58e385c6a2cd1f, type: 3}
  - m_OriginalClip: {fileID: 7400000, guid: 7d58521943eb42b4c9b63ded3906e306, type: 2}
    m_OverrideClip: {fileID: 7400000, guid: e502a5e6e3bfdc34ea7042bbe380e22f, type: 3}
  - m_OriginalClip: {fileID: 7400000, guid: 8cf19caeee9bb3c43a09d57a2a2ba09d, type: 2}
    m_OverrideClip: {fileID: 7400000, guid: b161d64d0b842484a8dfe278b2bc0b7a, type: 3}
  - m_OriginalClip: {fileID: 7400000, guid: 005ef329f9069a341a4c65ac96ebd0c1, type: 2}
    m_OverrideClip: {fileID: 7400000, guid: eb1d80017f2b5894c8f7cbe21f60c18b, type: 3}
  - m_OriginalClip: {fileID: 7400000, guid: 8662c5c621c785c4b8030eac9758e764, type: 2}
    m_OverrideClip: {fileID: 7400000, guid: d01821c0731788843bdef98c31b20722, type: 3}
  - m_OriginalClip: {fileID: 7400000, guid: d71581b97fb501e488eb778f198bb010, type: 2}
    m_OverrideClip: {fileID: 7400000, guid: 6022850e50f6d834bb396db8945e2992, type: 3}
  - m_OriginalClip: {fileID: 7400000, guid: 25cc2c37e339f4e409306df4dde6c404, type: 2}
    m_OverrideClip: {fileID: 7400000, guid: 02b70578b17317042874e8b5269c2ad1, type: 3}
  - m_OriginalClip: {fileID: 7400000, guid: db94335d337e94a43962c505a87693c3, type: 2}
    m_OverrideClip: {fileID: 7400000, guid: 717ba0c3bcc684d4385f78478e117e6c, type: 3}
